LMS_Periph/wb_lms.vcd
$date
	Sat Oct 25 12:31:38 2025
$end
$version
	Icarus Verilog
$end
$timescale
	1ps
$end
$scope module wb_lms_tb $end
$var wire 16 ! wb_dat_o [15:0] $end
$var wire 1 " wb_ack_o $end
$var reg 16 # err_r [15:0] $end
$var reg 16 $ w0_r [15:0] $end
$var reg 32 % wb_adr_i [31:0] $end
$var reg 1 & wb_clk_i $end
$var reg 1 ' wb_cyc_i $end
$var reg 16 ( wb_dat_i [15:0] $end
$var reg 1 ) wb_rst_i $end
$var reg 1 * wb_stb_i $end
$var reg 1 + wb_we_i $end
$var reg 16 , y_r [15:0] $end
$var integer 32 - i [31:0] $end
$scope module dut $end
$var wire 32 . wb_adr_i [31:0] $end
$var wire 1 & wb_clk_i $end
$var wire 1 ' wb_cyc_i $end
$var wire 16 / wb_dat_i [15:0] $end
$var wire 1 ) wb_rst_i $end
$var wire 1 * wb_stb_i $end
$var wire 1 + wb_we_i $end
$var wire 16 0 y_out [15:0] $end
$var wire 16 1 w3 [15:0] $end
$var wire 16 2 w2 [15:0] $end
$var wire 16 3 w1 [15:0] $end
$var wire 16 4 w0 [15:0] $end
$var wire 16 5 err [15:0] $end
$var reg 16 6 reg_d_in [15:0] $end
$var reg 1 7 reg_mode_train $end
$var reg 16 8 reg_x_in [15:0] $end
$var reg 1 " wb_ack_o $end
$var reg 16 9 wb_dat_o [15:0] $end
$scope module lms_core $end
$var wire 1 & Clk $end
$var wire 1 ) Rst $end
$var wire 16 : d_in [15:0] $end
$var wire 16 ; err [15:0] $end
$var wire 1 7 mode_train $end
$var wire 16 < w0 [15:0] $end
$var wire 16 = w1 [15:0] $end
$var wire 16 > w2 [15:0] $end
$var wire 16 ? w3 [15:0] $end
$var wire 16 @ x_in [15:0] $end
$var wire 16 A y_out [15:0] $end
$var wire 32 B y_acc [31:0] $end
$var wire 16 C wn_u3 [15:0] $end
$var wire 16 D wn_u2 [15:0] $end
$var wire 16 E wn_u1 [15:0] $end
$var wire 16 F wn_u0 [15:0] $end
$var wire 16 G p3_q [15:0] $end
$var wire 32 H p3 [31:0] $end
$var wire 16 I p2_q [15:0] $end
$var wire 32 J p2 [31:0] $end
$var wire 16 K p1_q [15:0] $end
$var wire 32 L p1 [31:0] $end
$var wire 16 M p0_q [15:0] $end
$var wire 32 N p0 [31:0] $end
$var wire 32 O m3_long [31:0] $end
$var wire 16 P m3 [15:0] $end
$var wire 32 Q m2_long [31:0] $end
$var wire 16 R m2 [15:0] $end
$var wire 32 S m1_long [31:0] $end
$var wire 16 T m1 [15:0] $end
$var wire 32 U m0_long [31:0] $end
$var wire 16 V m0 [15:0] $end
$var parameter 16 W gamma $end
$var reg 16 X d_reg [15:0] $end
$var reg 16 Y err_reg [15:0] $end
$var reg 16 Z x_reg [15:0] $end
$upscope $end
$upscope $end
$scope task wb_read $end
$var reg 32 [ addr [31:0] $end
$var reg 16 \ data [15:0] $end
$upscope $end
$scope task wb_write $end
$var reg 32 ] addr [31:0] $end
$var reg 16 ^ data [15:0] $end
$upscope $end
$upscope $end
$enddefinitions $end
$comment Show the parameter values. $end
$dumpall
b100000000000 W
$end
#0
$dumpvars
bx ^
bx ]
bx \
bx [
b0 Z
b0 Y
b0 X
b0 V
b0 U
b0 T
b0 S
b0 R
b0 Q
b0 P
b0 O
b0 N
b0 M
b0 L
b0 K
b0 J
b0 I
b0 H
b0 G
b0 F
b0 E
b0 D
b0 C
b0 B
b0 A
b0 @
b0 ?
b0 >
b0 =
b0 <
b0 ;
b0 :
b0 9
b0 8
07
b0 6
b0 5
b0 4
b0 3
b0 2
b0 1
b0 0
b0 /
b0 .
bx -
bx ,
0+
0*
1)
b0 (
0'
0&
b0 %
bx $
bx #
0"
b0 !
$end
#5000
1&
#10000
0&
#15000
1&
#20000
0&
1'
1*
1+
b1 (
b1 /
b10 %
b10 .
b1 ^
b10 ]
b10000 -
0)
#25000
0+
0'
0*
1&
#30000
0&
#35000
1"
1'
1*
1+
b0 (
b0 /
b0 %
b0 .
b0 ^
b0 ]
b0 -
1&
#40000
0&
#45000
0"
0+
0'
0*
1&
#50000
0&
#55000
1"
1'
1*
1+
b1 %
b1 .
b1 ]
1&
#60000
0&
#65000
0"
0+
0'
0*
1&
#70000
0&
#75000
1&
#80000
0&
#85000
b100000000 8
b100000000 @
1"
1'
1*
1+
b100000000 (
b100000000 /
b0 %
b0 .
b100000000 ^
b0 ]
b1 -
1&
#90000
0&
#95000
b100000000 Z
0"
0+
0'
0*
1&
#100000
0&
#105000
b1000000000 8
b1000000000 @
1"
1'
1*
1+
b1000000000 (
b1000000000 /
b1 %
b1 .
b1000000000 ^
b1 ]
1&
#110000
0&
#115000
b1000000000 Z
0"
0+
0'
0*
1&
#120000
0&
#125000
1&
#130000
0&
#135000
1"
1'
1*
1+
b0 %
b0 .
b0 ]
b10 -
1&
#140000
0&
#145000
0"
0+
0'
0*
1&
#150000
0&
#155000
b10000000000 8
b10000000000 @
1"
1'
1*
1+
b10000000000 (
b10000000000 /
b1 %
b1 .
b10000000000 ^
b1 ]
1&
#160000
0&
#165000
0"
b10000000000 Z
0+
0'
0*
1&
#170000
0&
#175000
1&
#180000
0&
#185000
b1100000000 8
b1100000000 @
1"
1'
1*
1+
b1100000000 (
b1100000000 /
b0 %
b0 .
b1100000000 ^
b0 ]
b11 -
1&
#190000
0&
#195000
b1100000000 Z
0"
0+
0'
0*
1&
#200000
0&
#205000
b11000000000 8
b11000000000 @
1"
1'
1*
1+
b11000000000 (
b11000000000 /
b1 %
b1 .
b11000000000 ^
b1 ]
1&
#210000
0&
#215000
b11000000000 Z
0"
0+
0'
0*
1&
#220000
0&
#225000
1&
#230000
0&
#235000
b10000000000 8
b10000000000 @
1"
1'
1*
1+
b10000000000 (
b10000000000 /
b0 %
b0 .
b10000000000 ^
b0 ]
b100 -
1&
#240000
0&
#245000
0"
b10000000000 Z
0+
0'
0*
1&
#250000
0&
#255000
b100000000000 8
b100000000000 @
1"
1'
1*
1+
b100000000000 (
b100000000000 /
b1 %
b1 .
b100000000000 ^
b1 ]
1&
#260000
0&
#265000
0"
b100000000000 Z
0+
0'
0*
1&
#270000
0&
#275000
1&
#280000
0&
#285000
b10100000000 8
b10100000000 @
1"
1'
1*
1+
b10100000000 (
b10100000000 /
b0 %
b0 .
b10100000000 ^
b0 ]
b101 -
1&
#290000
0&
#295000
b10100000000 Z
0"
0+
0'
0*
1&
#300000
0&
#305000
b101000000000 8
b101000000000 @
1"
1'
1*
1+
b101000000000 (
b101000000000 /
b1 %
b1 .
b101000000000 ^
b1 ]
1&
#310000
0&
#315000
b101000000000 Z
0"
0+
0'
0*
1&
#320000
0&
#325000
1&
#330000
0&
#335000
b11000000000 8
b11000000000 @
1"
1'
1*
1+
b11000000000 (
b11000000000 /
b0 %
b0 .
b11000000000 ^
b0 ]
b110 -
1&
#340000
0&
#345000
0"
b11000000000 Z
0+
0'
0*
1&
#350000
0&
#355000
b110000000000 8
b110000000000 @
1"
1'
1*
1+
b110000000000 (
b110000000000 /
b1 %
b1 .
b110000000000 ^
b1 ]
1&
#360000
0&
#365000
0"
b110000000000 Z
0+
0'
0*
1&
#370000
0&
#375000
1&
#380000
0&
#385000
b11100000000 8
b11100000000 @
1"
1'
1*
1+
b11100000000 (
b11100000000 /
b0 %
b0 .
b11100000000 ^
b0 ]
b111 -
1&
#390000
0&
#395000
b11100000000 Z
0"
0+
0'
0*
1&
#400000
0&
#405000
b111000000000 8
b111000000000 @
1"
1'
1*
1+
b111000000000 (
b111000000000 /
b1 %
b1 .
b111000000000 ^
b1 ]
1&
#410000
0&
#415000
b111000000000 Z
0"
0+
0'
0*
1&
#420000
0&
#425000
1&
#430000
0&
#435000
b100000000000 8
b100000000000 @
1"
1'
1*
1+
b100000000000 (
b100000000000 /
b0 %
b0 .
b100000000000 ^
b0 ]
b1000 -
1&
#440000
0&
#445000
0"
b100000000000 Z
0+
0'
0*
1&
#450000
0&
#455000
b1000000000000 8
b1000000000000 @
1"
1'
1*
1+
b1000000000000 (
b1000000000000 /
b1 %
b1 .
b1000000000000 ^
b1 ]
1&
#460000
0&
#465000
0"
b1000000000000 Z
0+
0'
0*
1&
#470000
0&
#475000
1&
#480000
0&
#485000
b100100000000 8
b100100000000 @
1"
1'
1*
1+
b100100000000 (
b100100000000 /
b0 %
b0 .
b100100000000 ^
b0 ]
b1001 -
1&
#490000
0&
#495000
b100100000000 Z
0"
0+
0'
0*
1&
#500000
0&
#505000
b1001000000000 8
b1001000000000 @
1"
1'
1*
1+
b1001000000000 (
b1001000000000 /
b1 %
b1 .
b1001000000000 ^
b1 ]
1&
#510000
0&
#515000
b1001000000000 Z
0"
0+
0'
0*
1&
#520000
0&
#525000
1&
#530000
0&
#535000
b101000000000 8
b101000000000 @
1"
1'
1*
1+
b101000000000 (
b101000000000 /
b0 %
b0 .
b101000000000 ^
b0 ]
b1010 -
1&
#540000
0&
#545000
0"
b101000000000 Z
0+
0'
0*
1&
#550000
0&
#555000
b1010000000000 8
b1010000000000 @
1"
1'
1*
1+
b1010000000000 (
b1010000000000 /
b1 %
b1 .
b1010000000000 ^
b1 ]
1&
#560000
0&
#565000
0"
b1010000000000 Z
0+
0'
0*
1&
#570000
0&
#575000
1&
#580000
0&
#585000
b101100000000 8
b101100000000 @
1"
1'
1*
1+
b101100000000 (
b101100000000 /
b0 %
b0 .
b101100000000 ^
b0 ]
b1011 -
1&
#590000
0&
#595000
b101100000000 Z
0"
0+
0'
0*
1&
#600000
0&
#605000
b1011000000000 8
b1011000000000 @
1"
1'
1*
1+
b1011000000000 (
b1011000000000 /
b1 %
b1 .
b1011000000000 ^
b1 ]
1&
#610000
0&
#615000
b1011000000000 Z
0"
0+
0'
0*
1&
#620000
0&
#625000
1&
#630000
0&
#635000
b110000000000 8
b110000000000 @
1"
1'
1*
1+
b110000000000 (
b110000000000 /
b0 %
b0 .
b110000000000 ^
b0 ]
b1100 -
1&
#640000
0&
#645000
0"
b110000000000 Z
0+
0'
0*
1&
#650000
0&
#655000
b1100000000000 8
b1100000000000 @
1"
1'
1*
1+
b1100000000000 (
b1100000000000 /
b1 %
b1 .
b1100000000000 ^
b1 ]
1&
#660000
0&
#665000
0"
b1100000000000 Z
0+
0'
0*
1&
#670000
0&
#675000
1&
#680000
0&
#685000
b110100000000 8
b110100000000 @
1"
1'
1*
1+
b110100000000 (
b110100000000 /
b0 %
b0 .
b110100000000 ^
b0 ]
b1101 -
1&
#690000
0&
#695000
b110100000000 Z
0"
0+
0'
0*
1&
#700000
0&
#705000
b1101000000000 8
b1101000000000 @
1"
1'
1*
1+
b1101000000000 (
b1101000000000 /
b1 %
b1 .
b1101000000000 ^
b1 ]
1&
#710000
0&
#715000
b1101000000000 Z
0"
0+
0'
0*
1&
#720000
0&
#725000
1&
#730000
0&
#735000
b111000000000 8
b111000000000 @
1"
1'
1*
1+
b111000000000 (
b111000000000 /
b0 %
b0 .
b111000000000 ^
b0 ]
b1110 -
1&
#740000
0&
#745000
0"
b111000000000 Z
0+
0'
0*
1&
#750000
0&
#755000
b1110000000000 8
b1110000000000 @
1"
1'
1*
1+
b1110000000000 (
b1110000000000 /
b1 %
b1 .
b1110000000000 ^
b1 ]
1&
#760000
0&
#765000
0"
b1110000000000 Z
0+
0'
0*
1&
#770000
0&
#775000
1&
#780000
0&
#785000
b111100000000 8
b111100000000 @
1"
1'
1*
1+
b111100000000 (
b111100000000 /
b0 %
b0 .
b111100000000 ^
b0 ]
b1111 -
1&
#790000
0&
#795000
b111100000000 Z
0"
0+
0'
0*
1&
#800000
0&
#805000
b1111000000000 8
b1111000000000 @
1"
1'
1*
1+
b1111000000000 (
b1111000000000 /
b1 %
b1 .
b1111000000000 ^
b1 ]
1&
#810000
0&
#815000
b1111000000000 Z
0"
0+
0'
0*
1&
#820000
0&
#825000
1&
#830000
0&
#835000
b0 8
b0 @
1"
1'
1*
1+
b0 (
b0 /
b10 %
b10 .
b0 ^
b10 ]
b10000 -
1&
#840000
0&
#845000
0"
b0 Z
0+
0'
0*
1&
#850000
0&
#855000
1"
1'
1*
1+
b0 %
b0 .
b0 ]
b0 -
1&
#860000
0&
#865000
0"
0+
0'
0*
1&
#870000
0&
#875000
1&
#880000
0&
#885000
1"
1'
1*
b11 %
b11 .
b11 [
1&
#890000
0&
#895000
0"
0'
0*
b0 \
1&
#900000
0&
#905000
1"
1'
1*
b100 %
b100 .
b100 [
b0 ,
1&
#910000
0&
#915000
0"
0'
0*
1&
#920000
0&
#925000
1"
1'
1*
b101 %
b101 .
b101 [
b0 #
1&
#930000
0&
#935000
0"
0'
0*
1&
#940000
0&
#945000
b100000000 8
b100000000 @
1"
1'
1*
1+
b100000000 (
b100000000 /
b0 %
b0 .
b100000000 ^
b1 -
b0 $
1&
#950000
0&
#955000
b100000000 Z
0"
0+
0'
0*
1&
#960000
0&
#965000
1&
#970000
0&
#975000
1"
1'
1*
b11 %
b11 .
b11 [
1&
#980000
0&
#985000
0"
0'
0*
1&
#990000
0&
#995000
1"
1'
1*
b100 %
b100 .
b100 [
1&
#1000000
0&
#1005000
0"
0'
0*
1&
#1010000
0&
#1015000
1"
1'
1*
b101 %
b101 .
b101 [
1&
#1020000
0&
#1025000
0"
0'
0*
1&
#1030000
0&
#1035000
b1000000000 8
b1000000000 @
1"
1'
1*
1+
b1000000000 (
b1000000000 /
b0 %
b0 .
b1000000000 ^
b10 -
1&
#1040000
0&
#1045000
0"
b1000000000 Z
0+
0'
0*
1&
#1050000
0&
#1055000
1&
#1060000
0&
#1065000
1"
1'
1*
b11 %
b11 .
b11 [
1&
#1070000
0&
#1075000
0"
0'
0*
1&
#1080000
0&
#1085000
1"
1'
1*
b100 %
b100 .
b100 [
1&
#1090000
0&
#1095000
0"
0'
0*
1&
#1100000
0&
#1105000
1"
1'
1*
b101 %
b101 .
b101 [
1&
#1110000
0&
#1115000
0"
0'
0*
1&
#1120000
0&
#1125000
b1100000000 8
b1100000000 @
1"
1'
1*
1+
b1100000000 (
b1100000000 /
b0 %
b0 .
b1100000000 ^
b11 -
1&
#1130000
0&
#1135000
b1100000000 Z
0"
0+
0'
0*
1&
#1140000
0&
#1145000
1&
#1150000
0&
#1155000
1"
1'
1*
b11 %
b11 .
b11 [
1&
#1160000
0&
#1165000
0"
0'
0*
1&
#1170000
0&
#1175000
1"
1'
1*
b100 %
b100 .
b100 [
1&
#1180000
0&
#1185000
0"
0'
0*
1&
#1190000
0&
#1195000
1"
1'
1*
b101 %
b101 .
b101 [
1&
#1200000
0&
#1205000
0"
0'
0*
1&
#1210000
0&
#1215000
b10000000000 8
b10000000000 @
1"
1'
1*
1+
b10000000000 (
b10000000000 /
b0 %
b0 .
b10000000000 ^
b100 -
1&
#1220000
0&
#1225000
0"
b10000000000 Z
0+
0'
0*
1&
#1230000
0&
#1235000
1&
#1240000
0&
#1245000
1"
1'
1*
b11 %
b11 .
b11 [
1&
#1250000
0&
#1255000
0"
0'
0*
1&
#1260000
0&
#1265000
1"
1'
1*
b100 %
b100 .
b100 [
1&
#1270000
0&
#1275000
0"
0'
0*
1&
#1280000
0&
#1285000
1"
1'
1*
b101 %
b101 .
b101 [
1&
#1290000
0&
#1295000
0"
0'
0*
1&
#1300000
0&
#1305000
b10100000000 8
b10100000000 @
1"
1'
1*
1+
b10100000000 (
b10100000000 /
b0 %
b0 .
b10100000000 ^
b101 -
1&
#1310000
0&
#1315000
b10100000000 Z
0"
0+
0'
0*
1&
#1320000
0&
#1325000
1&
#1330000
0&
#1335000
1"
1'
1*
b11 %
b11 .
b11 [
1&
#1340000
0&
#1345000
0"
0'
0*
1&
#1350000
0&
#1355000
1"
1'
1*
b100 %
b100 .
b100 [
1&
#1360000
0&
#1365000
0"
0'
0*
1&
#1370000
0&
#1375000
1"
1'
1*
b101 %
b101 .
b101 [
1&
#1380000
0&
#1385000
0"
0'
0*
1&
#1390000
0&
#1395000
b11000000000 8
b11000000000 @
1"
1'
1*
1+
b11000000000 (
b11000000000 /
b0 %
b0 .
b11000000000 ^
b110 -
1&
#1400000
0&
#1405000
0"
b11000000000 Z
0+
0'
0*
1&
#1410000
0&
#1415000
1&
#1420000
0&
#1425000
1"
1'
1*
b11 %
b11 .
b11 [
1&
#1430000
0&
#1435000
0"
0'
0*
1&
#1440000
0&
#1445000
1"
1'
1*
b100 %
b100 .
b100 [
1&
#1450000
0&
#1455000
0"
0'
0*
1&
#1460000
0&
#1465000
1"
1'
1*
b101 %
b101 .
b101 [
1&
#1470000
0&
#1475000
0"
0'
0*
1&
#1480000
0&
#1485000
b11100000000 8
b11100000000 @
1"
1'
1*
1+
b11100000000 (
b11100000000 /
b0 %
b0 .
b11100000000 ^
b111 -
1&
#1490000
0&
#1495000
b11100000000 Z
0"
0+
0'
0*
1&
#1500000
0&
#1505000
1&
#1510000
0&
#1515000
1"
1'
1*
b11 %
b11 .
b11 [
1&
#1520000
0&
#1525000
0"
0'
0*
1&
#1530000
0&
#1535000
1"
1'
1*
b100 %
b100 .
b100 [
1&
#1540000
0&
#1545000
0"
0'
0*
1&
#1550000
0&
#1555000
1"
1'
1*
b101 %
b101 .
b101 [
1&
#1560000
0&
#1565000
0"
0'
0*
1&
#1570000
0&
#1575000
b100000000000 8
b100000000000 @
1"
1'
1*
1+
b100000000000 (
b100000000000 /
b0 %
b0 .
b100000000000 ^
b1000 -
1&
#1580000
0&
#1585000
0"
b100000000000 Z
0+
0'
0*
1&
#1590000
0&
#1595000
1&
#1600000
0&
#1605000
1"
1'
1*
b11 %
b11 .
b11 [
1&
#1610000
0&
#1615000
0"
0'
0*
1&
#1620000
0&
#1625000
1"
1'
1*
b100 %
b100 .
b100 [
1&
#1630000
0&
#1635000
0"
0'
0*
1&
#1640000
0&
#1645000
1"
1'
1*
b101 %
b101 .
b101 [
1&
#1650000
0&
#1655000
0"
0'
0*
1&
#1660000
0&
#1665000
b100100000000 8
b100100000000 @
1"
1'
1*
1+
b100100000000 (
b100100000000 /
b0 %
b0 .
b100100000000 ^
b1001 -
1&
#1670000
0&
#1675000
b100100000000 Z
0"
0+
0'
0*
1&
#1680000
0&
#1685000
1&
#1690000
0&
#1695000
1"
1'
1*
b11 %
b11 .
b11 [
1&
#1700000
0&
#1705000
0"
0'
0*
1&
#1710000
0&
#1715000
1"
1'
1*
b100 %
b100 .
b100 [
1&
#1720000
0&
#1725000
0"
0'
0*
1&
#1730000
0&
#1735000
1"
1'
1*
b101 %
b101 .
b101 [
1&
#1740000
0&
#1745000
0"
0'
0*
1&
#1750000
0&
#1755000
b101000000000 8
b101000000000 @
1"
1'
1*
1+
b101000000000 (
b101000000000 /
b0 %
b0 .
b101000000000 ^
b1010 -
1&
#1760000
0&
#1765000
0"
b101000000000 Z
0+
0'
0*
1&
#1770000
0&
#1775000
1&
#1780000
0&
#1785000
1"
1'
1*
b11 %
b11 .
b11 [
1&
#1790000
0&
#1795000
0"
0'
0*
1&
#1800000
0&
#1805000
1"
1'
1*
b100 %
b100 .
b100 [
1&
#1810000
0&
#1815000
0"
0'
0*
1&
#1820000
0&
#1825000
1"
1'
1*
b101 %
b101 .
b101 [
1&
#1830000
0&
#1835000
0"
0'
0*
1&
#1840000
0&
#1845000
b101100000000 8
b101100000000 @
1"
1'
1*
1+
b101100000000 (
b101100000000 /
b0 %
b0 .
b101100000000 ^
b1011 -
1&
#1850000
0&
#1855000
b101100000000 Z
0"
0+
0'
0*
1&
#1860000
0&
#1865000
1&
#1870000
0&
#1875000
1"
1'
1*
b11 %
b11 .
b11 [
1&
#1880000
0&
#1885000
0"
0'
0*
1&
#1890000
0&
#1895000
1"
1'
1*
b100 %
b100 .
b100 [
1&
#1900000
0&
#1905000
0"
0'
0*
1&
#1910000
0&
#1915000
1"
1'
1*
b101 %
b101 .
b101 [
1&
#1920000
0&
#1925000
0"
0'
0*
1&
#1930000
0&
#1935000
b110000000000 8
b110000000000 @
1"
1'
1*
1+
b110000000000 (
b110000000000 /
b0 %
b0 .
b110000000000 ^
b1100 -
1&
#1940000
0&
#1945000
0"
b110000000000 Z
0+
0'
0*
1&
#1950000
0&
#1955000
1&
#1960000
0&
#1965000
1"
1'
1*
b11 %
b11 .
b11 [
1&
#1970000
0&
#1975000
0"
0'
0*
1&
#1980000
0&
#1985000
1"
1'
1*
b100 %
b100 .
b100 [
1&
#1990000
0&
#1995000
0"
0'
0*
1&
#2000000
0&
#2005000
1"
1'
1*
b101 %
b101 .
b101 [
1&
#2010000
0&
#2015000
0"
0'
0*
1&
#2020000
0&
#2025000
b110100000000 8
b110100000000 @
1"
1'
1*
1+
b110100000000 (
b110100000000 /
b0 %
b0 .
b110100000000 ^
b1101 -
1&
#2030000
0&
#2035000
b110100000000 Z
0"
0+
0'
0*
1&
#2040000
0&
#2045000
1&
#2050000
0&
#2055000
1"
1'
1*
b11 %
b11 .
b11 [
1&
#2060000
0&
#2065000
0"
0'
0*
1&
#2070000
0&
#2075000
1"
1'
1*
b100 %
b100 .
b100 [
1&
#2080000
0&
#2085000
0"
0'
0*
1&
#2090000
0&
#2095000
1"
1'
1*
b101 %
b101 .
b101 [
1&
#2100000
0&
#2105000
0"
0'
0*
1&
#2110000
0&
#2115000
b111000000000 8
b111000000000 @
1"
1'
1*
1+
b111000000000 (
b111000000000 /
b0 %
b0 .
b111000000000 ^
b1110 -
1&
#2120000
0&
#2125000
0"
b111000000000 Z
0+
0'
0*
1&
#2130000
0&
#2135000
1&
#2140000
0&
#2145000
1"
1'
1*
b11 %
b11 .
b11 [
1&
#2150000
0&
#2155000
0"
0'
0*
1&
#2160000
0&
#2165000
1"
1'
1*
b100 %
b100 .
b100 [
1&
#2170000
0&
#2175000
0"
0'
0*
1&
#2180000
0&
#2185000
1"
1'
1*
b101 %
b101 .
b101 [
1&
#2190000
0&
#2195000
0"
0'
0*
1&
#2200000
0&
#2205000
b111100000000 8
b111100000000 @
1"
1'
1*
1+
b111100000000 (
b111100000000 /
b0 %
b0 .
b111100000000 ^
b1111 -
1&
#2210000
0&
#2215000
b111100000000 Z
0"
0+
0'
0*
1&
#2220000
0&
#2225000
1&
#2230000
0&
#2235000
1"
1'
1*
b11 %
b11 .
b11 [
1&
#2240000
0&
#2245000
0"
0'
0*
1&
#2250000
0&
#2255000
1"
1'
1*
b100 %
b100 .
b100 [
1&
#2260000
0&
#2265000
0"
0'
0*
1&
#2270000
0&
#2275000
1"
1'
1*
b101 %
b101 .
b101 [
1&
#2280000
0&
#2285000
0"
0'
0*
1&
#2290000
0&
#2295000
b10000 -
1&
