LMS_Periph/wb_lms_trainable.vcd
$date
	Sat Oct 25 12:22:11 2025
$end
$version
	Icarus Verilog
$end
$timescale
	1ps
$end
$scope module wb_lms_trainable_tb $end
$var wire 16 ! wb_dat_o [15:0] $end
$var wire 1 " wb_ack_o $end
$var reg 16 # err_read [15:0] $end
$var reg 16 $ w0_read [15:0] $end
$var reg 32 % wb_adr_i [31:0] $end
$var reg 1 & wb_clk_i $end
$var reg 1 ' wb_cyc_i $end
$var reg 16 ( wb_dat_i [15:0] $end
$var reg 1 ) wb_rst_i $end
$var reg 1 * wb_stb_i $end
$var reg 1 + wb_we_i $end
$var reg 16 , y_read [15:0] $end
$var integer 32 - i [31:0] $end
$scope module dut $end
$var wire 32 . wb_adr_i [31:0] $end
$var wire 1 & wb_clk_i $end
$var wire 1 ' wb_cyc_i $end
$var wire 16 / wb_dat_i [15:0] $end
$var wire 1 ) wb_rst_i $end
$var wire 1 * wb_stb_i $end
$var wire 1 + wb_we_i $end
$var wire 16 0 y_out [15:0] $end
$var wire 16 1 w3 [15:0] $end
$var wire 16 2 w2 [15:0] $end
$var wire 16 3 w1 [15:0] $end
$var wire 16 4 w0 [15:0] $end
$var wire 16 5 err [15:0] $end
$var reg 16 6 reg_d_in [15:0] $end
$var reg 1 7 reg_mode_train $end
$var reg 16 8 reg_x_in [15:0] $end
$var reg 1 " wb_ack_o $end
$var reg 16 9 wb_dat_o [15:0] $end
$scope module lms_core $end
$var wire 1 & Clk $end
$var wire 1 ) Rst $end
$var wire 16 : d_in [15:0] $end
$var wire 1 7 mode_train $end
$var wire 16 ; w0 [15:0] $end
$var wire 16 < w1 [15:0] $end
$var wire 16 = w2 [15:0] $end
$var wire 16 > w3 [15:0] $end
$var wire 16 ? x_in [15:0] $end
$var wire 16 @ y_out [15:0] $end
$var wire 32 A y_accum [31:0] $end
$var wire 16 B err [15:0] $end
$var parameter 16 C gamma $end
$var reg 32 D mul1 [31:0] $end
$var reg 32 E mul2 [31:0] $end
$var reg 32 F mul3 [31:0] $end
$var integer 32 G i [31:0] $end
$upscope $end
$upscope $end
$scope task wb_read $end
$var reg 32 H addr [31:0] $end
$var reg 16 I data [15:0] $end
$upscope $end
$scope task wb_write $end
$var reg 32 J addr [31:0] $end
$var reg 16 K data [15:0] $end
$upscope $end
$upscope $end
$enddefinitions $end
$comment Show the parameter values. $end
$dumpall
b1100110011 C
$end
#0
$dumpvars
bx K
bx J
bx I
bx H
b100 G
b0 F
b0 E
b0 D
b0 B
b0 A
b0 @
b0 ?
b0 >
b0 =
b0 <
b0 ;
b0 :
b0 9
b0 8
07
b0 6
b0 5
b0 4
b0 3
b0 2
b0 1
b0 0
b0 /
b0 .
bx -
bx ,
0+
0*
1)
b0 (
0'
0&
b0 %
bx $
bx #
0"
b0 !
$end
#5000
1&
#10000
0&
#15000
1&
#20000
0&
1'
1*
1+
b1 (
b1 /
b10 %
b10 .
b1 K
b10 J
b10000 -
0)
#25000
0+
0'
0*
1&
#30000
0&
#35000
1"
1'
1*
1+
b0 (
b0 /
b0 %
b0 .
b0 K
b0 J
b0 -
1&
#40000
0&
#45000
0"
0+
0'
0*
1&
#50000
0&
#55000
1"
1'
1*
1+
b1 %
b1 .
b1 J
1&
#60000
0&
#65000
0"
0+
0'
0*
1&
#70000
0&
#75000
1"
b100000000 8
b100000000 ?
1'
1*
1+
b100000000 (
b100000000 /
b0 %
b0 .
b100000000 K
b0 J
b1 -
1&
#80000
0&
#85000
b100 G
0"
0+
0'
0*
1&
#90000
0&
#95000
b100 G
1"
b1000000000 8
b1000000000 ?
1'
1*
1+
b1000000000 (
b1000000000 /
b1 %
b1 .
b1000000000 K
b1 J
1&
#100000
0&
#105000
b100 G
0"
0+
0'
0*
1&
#110000
0&
#115000
b100 G
1"
1'
1*
1+
b0 %
b0 .
b0 J
b10 -
1&
#120000
0&
#125000
b100 G
0"
0+
0'
0*
1&
#130000
0&
#135000
b100 G
1"
b10000000000 8
b10000000000 ?
1'
1*
1+
b10000000000 (
b10000000000 /
b1 %
b1 .
b10000000000 K
b1 J
1&
#140000
0&
#145000
b100 G
0"
0+
0'
0*
1&
#150000
0&
#155000
b100 G
1"
b1100000000 8
b1100000000 ?
1'
1*
1+
b1100000000 (
b1100000000 /
b0 %
b0 .
b1100000000 K
b0 J
b11 -
1&
#160000
0&
#165000
b100 G
0"
0+
0'
0*
1&
#170000
0&
#175000
b100 G
1"
b11000000000 8
b11000000000 ?
1'
1*
1+
b11000000000 (
b11000000000 /
b1 %
b1 .
b11000000000 K
b1 J
1&
#180000
0&
#185000
b100 G
0"
0+
0'
0*
1&
#190000
0&
#195000
b100 G
1"
b10000000000 8
b10000000000 ?
1'
1*
1+
b10000000000 (
b10000000000 /
b0 %
b0 .
b10000000000 K
b0 J
b100 -
1&
#200000
0&
#205000
b100 G
0"
0+
0'
0*
1&
#210000
0&
#215000
b100 G
1"
b100000000000 8
b100000000000 ?
1'
1*
1+
b100000000000 (
b100000000000 /
b1 %
b1 .
b100000000000 K
b1 J
1&
#220000
0&
#225000
b100 G
0"
0+
0'
0*
1&
#230000
0&
#235000
b100 G
1"
b10100000000 8
b10100000000 ?
1'
1*
1+
b10100000000 (
b10100000000 /
b0 %
b0 .
b10100000000 K
b0 J
b101 -
1&
#240000
0&
#245000
b100 G
0"
0+
0'
0*
1&
#250000
0&
#255000
b100 G
1"
b101000000000 8
b101000000000 ?
1'
1*
1+
b101000000000 (
b101000000000 /
b1 %
b1 .
b101000000000 K
b1 J
1&
#260000
0&
#265000
b100 G
0"
0+
0'
0*
1&
#270000
0&
#275000
b100 G
1"
b11000000000 8
b11000000000 ?
1'
1*
1+
b11000000000 (
b11000000000 /
b0 %
b0 .
b11000000000 K
b0 J
b110 -
1&
#280000
0&
#285000
b100 G
0"
0+
0'
0*
1&
#290000
0&
#295000
b100 G
1"
b110000000000 8
b110000000000 ?
1'
1*
1+
b110000000000 (
b110000000000 /
b1 %
b1 .
b110000000000 K
b1 J
1&
#300000
0&
#305000
b100 G
0"
0+
0'
0*
1&
#310000
0&
#315000
b100 G
1"
b11100000000 8
b11100000000 ?
1'
1*
1+
b11100000000 (
b11100000000 /
b0 %
b0 .
b11100000000 K
b0 J
b111 -
1&
#320000
0&
#325000
b100 G
0"
0+
0'
0*
1&
#330000
0&
#335000
b100 G
1"
b111000000000 8
b111000000000 ?
1'
1*
1+
b111000000000 (
b111000000000 /
b1 %
b1 .
b111000000000 K
b1 J
1&
#340000
0&
#345000
b100 G
0"
0+
0'
0*
1&
#350000
0&
#355000
b100 G
1"
b100000000000 8
b100000000000 ?
1'
1*
1+
b100000000000 (
b100000000000 /
b0 %
b0 .
b100000000000 K
b0 J
b1000 -
1&
#360000
0&
#365000
b100 G
0"
0+
0'
0*
1&
#370000
0&
#375000
b100 G
1"
b1000000000000 8
b1000000000000 ?
1'
1*
1+
b1000000000000 (
b1000000000000 /
b1 %
b1 .
b1000000000000 K
b1 J
1&
#380000
0&
#385000
b100 G
0"
0+
0'
0*
1&
#390000
0&
#395000
b100 G
1"
b100100000000 8
b100100000000 ?
1'
1*
1+
b100100000000 (
b100100000000 /
b0 %
b0 .
b100100000000 K
b0 J
b1001 -
1&
#400000
0&
#405000
b100 G
0"
0+
0'
0*
1&
#410000
0&
#415000
b100 G
1"
b1001000000000 8
b1001000000000 ?
1'
1*
1+
b1001000000000 (
b1001000000000 /
b1 %
b1 .
b1001000000000 K
b1 J
1&
#420000
0&
#425000
b100 G
0"
0+
0'
0*
1&
#430000
0&
#435000
b100 G
1"
b101000000000 8
b101000000000 ?
1'
1*
1+
b101000000000 (
b101000000000 /
b0 %
b0 .
b101000000000 K
b0 J
b1010 -
1&
#440000
0&
#445000
b100 G
0"
0+
0'
0*
1&
#450000
0&
#455000
b100 G
1"
b1010000000000 8
b1010000000000 ?
1'
1*
1+
b1010000000000 (
b1010000000000 /
b1 %
b1 .
b1010000000000 K
b1 J
1&
#460000
0&
#465000
b100 G
0"
0+
0'
0*
1&
#470000
0&
#475000
b100 G
1"
b101100000000 8
b101100000000 ?
1'
1*
1+
b101100000000 (
b101100000000 /
b0 %
b0 .
b101100000000 K
b0 J
b1011 -
1&
#480000
0&
#485000
b100 G
0"
0+
0'
0*
1&
#490000
0&
#495000
b100 G
1"
b1011000000000 8
b1011000000000 ?
1'
1*
1+
b1011000000000 (
b1011000000000 /
b1 %
b1 .
b1011000000000 K
b1 J
1&
#500000
0&
#505000
b100 G
0"
0+
0'
0*
1&
#510000
0&
#515000
b100 G
1"
b110000000000 8
b110000000000 ?
1'
1*
1+
b110000000000 (
b110000000000 /
b0 %
b0 .
b110000000000 K
b0 J
b1100 -
1&
#520000
0&
#525000
b100 G
0"
0+
0'
0*
1&
#530000
0&
#535000
b100 G
1"
b1100000000000 8
b1100000000000 ?
1'
1*
1+
b1100000000000 (
b1100000000000 /
b1 %
b1 .
b1100000000000 K
b1 J
1&
#540000
0&
#545000
b100 G
0"
0+
0'
0*
1&
#550000
0&
#555000
b100 G
1"
b110100000000 8
b110100000000 ?
1'
1*
1+
b110100000000 (
b110100000000 /
b0 %
b0 .
b110100000000 K
b0 J
b1101 -
1&
#560000
0&
#565000
b100 G
0"
0+
0'
0*
1&
#570000
0&
#575000
b100 G
1"
b1101000000000 8
b1101000000000 ?
1'
1*
1+
b1101000000000 (
b1101000000000 /
b1 %
b1 .
b1101000000000 K
b1 J
1&
#580000
0&
#585000
b100 G
0"
0+
0'
0*
1&
#590000
0&
#595000
b100 G
1"
b111000000000 8
b111000000000 ?
1'
1*
1+
b111000000000 (
b111000000000 /
b0 %
b0 .
b111000000000 K
b0 J
b1110 -
1&
#600000
0&
#605000
b100 G
0"
0+
0'
0*
1&
#610000
0&
#615000
b100 G
1"
b1110000000000 8
b1110000000000 ?
1'
1*
1+
b1110000000000 (
b1110000000000 /
b1 %
b1 .
b1110000000000 K
b1 J
1&
#620000
0&
#625000
b100 G
0"
0+
0'
0*
1&
#630000
0&
#635000
b100 G
1"
b111100000000 8
b111100000000 ?
1'
1*
1+
b111100000000 (
b111100000000 /
b0 %
b0 .
b111100000000 K
b0 J
b1111 -
1&
#640000
0&
#645000
b100 G
0"
0+
0'
0*
1&
#650000
0&
#655000
b100 G
1"
b1111000000000 8
b1111000000000 ?
1'
1*
1+
b1111000000000 (
b1111000000000 /
b1 %
b1 .
b1111000000000 K
b1 J
1&
#660000
0&
#665000
b100 G
0"
0+
0'
0*
1&
#670000
0&
#675000
b100 G
1"
b0 8
b0 ?
1'
1*
1+
b0 (
b0 /
b10 %
b10 .
b0 K
b10 J
b10000 -
1&
#680000
0&
#685000
b100 G
0"
0+
0'
0*
1&
#690000
0&
#695000
b100 G
1"
1'
1*
1+
b0 %
b0 .
b0 J
b0 -
1&
#700000
0&
#705000
b100 G
0"
0+
0'
0*
1&
#710000
0&
#715000
b100 G
1"
1'
1*
b11 %
b11 .
b11 H
1&
#720000
0&
#725000
0"
0'
0*
b0 I
1&
#730000
0&
#735000
1"
1'
1*
b100 %
b100 .
b100 H
b0 ,
1&
#740000
0&
#745000
0"
0'
0*
1&
#750000
0&
#755000
1"
1'
1*
b101 %
b101 .
b101 H
b0 #
1&
#760000
0&
#765000
0"
0'
0*
1&
#770000
0&
#775000
1"
b100000000 8
b100000000 ?
1'
1*
1+
b100000000 (
b100000000 /
b0 %
b0 .
b100000000 K
b1 -
b0 $
1&
#780000
0&
#785000
b100 G
0"
0+
0'
0*
1&
#790000
0&
#795000
b100 G
1"
1'
1*
b11 %
b11 .
b11 H
1&
#800000
0&
#805000
b100 G
0"
0'
0*
1&
#810000
0&
#815000
b100 G
1"
1'
1*
b100 %
b100 .
b100 H
1&
#820000
0&
#825000
0"
0'
0*
1&
#830000
0&
#835000
1"
1'
1*
b101 %
b101 .
b101 H
1&
#840000
0&
#845000
0"
0'
0*
1&
#850000
0&
#855000
1"
b1000000000 8
b1000000000 ?
1'
1*
1+
b1000000000 (
b1000000000 /
b0 %
b0 .
b1000000000 K
b10 -
1&
#860000
0&
#865000
b100 G
0"
0+
0'
0*
1&
#870000
0&
#875000
b100 G
1"
1'
1*
b11 %
b11 .
b11 H
1&
#880000
0&
#885000
b100 G
0"
0'
0*
1&
#890000
0&
#895000
b100 G
1"
1'
1*
b100 %
b100 .
b100 H
1&
#900000
0&
#905000
0"
0'
0*
1&
#910000
0&
#915000
1"
1'
1*
b101 %
b101 .
b101 H
1&
#920000
0&
#925000
0"
0'
0*
1&
#930000
0&
#935000
1"
b1100000000 8
b1100000000 ?
1'
1*
1+
b1100000000 (
b1100000000 /
b0 %
b0 .
b1100000000 K
b11 -
1&
#940000
0&
#945000
b100 G
0"
0+
0'
0*
1&
#950000
0&
#955000
b100 G
1"
1'
1*
b11 %
b11 .
b11 H
1&
#960000
0&
#965000
b100 G
0"
0'
0*
1&
#970000
0&
#975000
b100 G
1"
1'
1*
b100 %
b100 .
b100 H
1&
#980000
0&
#985000
0"
0'
0*
1&
#990000
0&
#995000
1"
1'
1*
b101 %
b101 .
b101 H
1&
#1000000
0&
#1005000
0"
0'
0*
1&
#1010000
0&
#1015000
1"
b10000000000 8
b10000000000 ?
1'
1*
1+
b10000000000 (
b10000000000 /
b0 %
b0 .
b10000000000 K
b100 -
1&
#1020000
0&
#1025000
b100 G
0"
0+
0'
0*
1&
#1030000
0&
#1035000
b100 G
1"
1'
1*
b11 %
b11 .
b11 H
1&
#1040000
0&
#1045000
b100 G
0"
0'
0*
1&
#1050000
0&
#1055000
b100 G
1"
1'
1*
b100 %
b100 .
b100 H
1&
#1060000
0&
#1065000
0"
0'
0*
1&
#1070000
0&
#1075000
1"
1'
1*
b101 %
b101 .
b101 H
1&
#1080000
0&
#1085000
0"
0'
0*
1&
#1090000
0&
#1095000
1"
b10100000000 8
b10100000000 ?
1'
1*
1+
b10100000000 (
b10100000000 /
b0 %
b0 .
b10100000000 K
b101 -
1&
#1100000
0&
#1105000
b100 G
0"
0+
0'
0*
1&
#1110000
0&
#1115000
b100 G
1"
1'
1*
b11 %
b11 .
b11 H
1&
#1120000
0&
#1125000
b100 G
0"
0'
0*
1&
#1130000
0&
#1135000
b100 G
1"
1'
1*
b100 %
b100 .
b100 H
1&
#1140000
0&
#1145000
0"
0'
0*
1&
#1150000
0&
#1155000
1"
1'
1*
b101 %
b101 .
b101 H
1&
#1160000
0&
#1165000
0"
0'
0*
1&
#1170000
0&
#1175000
1"
b11000000000 8
b11000000000 ?
1'
1*
1+
b11000000000 (
b11000000000 /
b0 %
b0 .
b11000000000 K
b110 -
1&
#1180000
0&
#1185000
b100 G
0"
0+
0'
0*
1&
#1190000
0&
#1195000
b100 G
1"
1'
1*
b11 %
b11 .
b11 H
1&
#1200000
0&
#1205000
b100 G
0"
0'
0*
1&
#1210000
0&
#1215000
b100 G
1"
1'
1*
b100 %
b100 .
b100 H
1&
#1220000
0&
#1225000
0"
0'
0*
1&
#1230000
0&
#1235000
1"
1'
1*
b101 %
b101 .
b101 H
1&
#1240000
0&
#1245000
0"
0'
0*
1&
#1250000
0&
#1255000
1"
b11100000000 8
b11100000000 ?
1'
1*
1+
b11100000000 (
b11100000000 /
b0 %
b0 .
b11100000000 K
b111 -
1&
#1260000
0&
#1265000
b100 G
0"
0+
0'
0*
1&
#1270000
0&
#1275000
b100 G
1"
1'
1*
b11 %
b11 .
b11 H
1&
#1280000
0&
#1285000
b100 G
0"
0'
0*
1&
#1290000
0&
#1295000
b100 G
1"
1'
1*
b100 %
b100 .
b100 H
1&
#1300000
0&
#1305000
0"
0'
0*
1&
#1310000
0&
#1315000
1"
1'
1*
b101 %
b101 .
b101 H
1&
#1320000
0&
#1325000
0"
0'
0*
1&
#1330000
0&
#1335000
1"
b100000000000 8
b100000000000 ?
1'
1*
1+
b100000000000 (
b100000000000 /
b0 %
b0 .
b100000000000 K
b1000 -
1&
#1340000
0&
#1345000
b100 G
0"
0+
0'
0*
1&
#1350000
0&
#1355000
b100 G
1"
1'
1*
b11 %
b11 .
b11 H
1&
#1360000
0&
#1365000
b100 G
0"
0'
0*
1&
#1370000
0&
#1375000
b100 G
1"
1'
1*
b100 %
b100 .
b100 H
1&
#1380000
0&
#1385000
0"
0'
0*
1&
#1390000
0&
#1395000
1"
1'
1*
b101 %
b101 .
b101 H
1&
#1400000
0&
#1405000
0"
0'
0*
1&
#1410000
0&
#1415000
1"
b100100000000 8
b100100000000 ?
1'
1*
1+
b100100000000 (
b100100000000 /
b0 %
b0 .
b100100000000 K
b1001 -
1&
#1420000
0&
#1425000
b100 G
0"
0+
0'
0*
1&
#1430000
0&
#1435000
b100 G
1"
1'
1*
b11 %
b11 .
b11 H
1&
#1440000
0&
#1445000
b100 G
0"
0'
0*
1&
#1450000
0&
#1455000
b100 G
1"
1'
1*
b100 %
b100 .
b100 H
1&
#1460000
0&
#1465000
0"
0'
0*
1&
#1470000
0&
#1475000
1"
1'
1*
b101 %
b101 .
b101 H
1&
#1480000
0&
#1485000
0"
0'
0*
1&
#1490000
0&
#1495000
1"
b101000000000 8
b101000000000 ?
1'
1*
1+
b101000000000 (
b101000000000 /
b0 %
b0 .
b101000000000 K
b1010 -
1&
#1500000
0&
#1505000
b100 G
0"
0+
0'
0*
1&
#1510000
0&
#1515000
b100 G
1"
1'
1*
b11 %
b11 .
b11 H
1&
#1520000
0&
#1525000
b100 G
0"
0'
0*
1&
#1530000
0&
#1535000
b100 G
1"
1'
1*
b100 %
b100 .
b100 H
1&
#1540000
0&
#1545000
0"
0'
0*
1&
#1550000
0&
#1555000
1"
1'
1*
b101 %
b101 .
b101 H
1&
#1560000
0&
#1565000
0"
0'
0*
1&
#1570000
0&
#1575000
1"
b101100000000 8
b101100000000 ?
1'
1*
1+
b101100000000 (
b101100000000 /
b0 %
b0 .
b101100000000 K
b1011 -
1&
#1580000
0&
#1585000
b100 G
0"
0+
0'
0*
1&
#1590000
0&
#1595000
b100 G
1"
1'
1*
b11 %
b11 .
b11 H
1&
#1600000
0&
#1605000
b100 G
0"
0'
0*
1&
#1610000
0&
#1615000
b100 G
1"
1'
1*
b100 %
b100 .
b100 H
1&
#1620000
0&
#1625000
0"
0'
0*
1&
#1630000
0&
#1635000
1"
1'
1*
b101 %
b101 .
b101 H
1&
#1640000
0&
#1645000
0"
0'
0*
1&
#1650000
0&
#1655000
1"
b110000000000 8
b110000000000 ?
1'
1*
1+
b110000000000 (
b110000000000 /
b0 %
b0 .
b110000000000 K
b1100 -
1&
#1660000
0&
#1665000
b100 G
0"
0+
0'
0*
1&
#1670000
0&
#1675000
b100 G
1"
1'
1*
b11 %
b11 .
b11 H
1&
#1680000
0&
#1685000
b100 G
0"
0'
0*
1&
#1690000
0&
#1695000
b100 G
1"
1'
1*
b100 %
b100 .
b100 H
1&
#1700000
0&
#1705000
0"
0'
0*
1&
#1710000
0&
#1715000
1"
1'
1*
b101 %
b101 .
b101 H
1&
#1720000
0&
#1725000
0"
0'
0*
1&
#1730000
0&
#1735000
1"
b110100000000 8
b110100000000 ?
1'
1*
1+
b110100000000 (
b110100000000 /
b0 %
b0 .
b110100000000 K
b1101 -
1&
#1740000
0&
#1745000
b100 G
0"
0+
0'
0*
1&
#1750000
0&
#1755000
b100 G
1"
1'
1*
b11 %
b11 .
b11 H
1&
#1760000
0&
#1765000
b100 G
0"
0'
0*
1&
#1770000
0&
#1775000
b100 G
1"
1'
1*
b100 %
b100 .
b100 H
1&
#1780000
0&
#1785000
0"
0'
0*
1&
#1790000
0&
#1795000
1"
1'
1*
b101 %
b101 .
b101 H
1&
#1800000
0&
#1805000
0"
0'
0*
1&
#1810000
0&
#1815000
1"
b111000000000 8
b111000000000 ?
1'
1*
1+
b111000000000 (
b111000000000 /
b0 %
b0 .
b111000000000 K
b1110 -
1&
#1820000
0&
#1825000
b100 G
0"
0+
0'
0*
1&
#1830000
0&
#1835000
b100 G
1"
1'
1*
b11 %
b11 .
b11 H
1&
#1840000
0&
#1845000
b100 G
0"
0'
0*
1&
#1850000
0&
#1855000
b100 G
1"
1'
1*
b100 %
b100 .
b100 H
1&
#1860000
0&
#1865000
0"
0'
0*
1&
#1870000
0&
#1875000
1"
1'
1*
b101 %
b101 .
b101 H
1&
#1880000
0&
#1885000
0"
0'
0*
1&
#1890000
0&
#1895000
1"
b111100000000 8
b111100000000 ?
1'
1*
1+
b111100000000 (
b111100000000 /
b0 %
b0 .
b111100000000 K
b1111 -
1&
#1900000
0&
#1905000
b100 G
0"
0+
0'
0*
1&
#1910000
0&
#1915000
b100 G
1"
1'
1*
b11 %
b11 .
b11 H
1&
#1920000
0&
#1925000
b100 G
0"
0'
0*
1&
#1930000
0&
#1935000
b100 G
1"
1'
1*
b100 %
b100 .
b100 H
1&
#1940000
0&
#1945000
0"
0'
0*
1&
#1950000
0&
#1955000
1"
1'
1*
b101 %
b101 .
b101 H
1&
#1960000
0&
#1965000
0"
0'
0*
1&
#1970000
0&
#1975000
b10000 -
1&
